[
    {
        "id": 1,
        "nameStory":"Dung 123",
        "img": "https://cf.shopee.vn/file/ce03645345c4b23ecdf9e0de006931e5",
        "title": "Product 1",
        "desc": "",
        "price": 220000
    },
    {
        "id": 2,
        "nameStory":"King shop",
        "img": "https://onoff.vn/media/catalog/product/cache/ecd9e5267dd6c36af89d5c309a4716fc/H17TS20137.jpg",
        "title": "Lee 2",
        "desc": "",
        "price": 250000
    },
    {
        "id": 3,
        "nameStory":"Dung 213",
        "img": "https://onoff.vn/media/catalog/product/cache/ecd9e5267dd6c36af89d5c309a4716fc/H16TS20138.jpg",
        "title": "Smith 3",
        "desc": "",
        "price": 260000
    },
    {
        "id": 4,
        "nameStory":"King shop",
        "img": "https://onoff.vn/media/catalog/product/cache/ecd9e5267dd6c36af89d5c309a4716fc/H17TS20137.jpg",
        "title": "Meme 4",
        "desc": "",
        "price": 200000
    },
    {
        "id": 5,
        "nameStory":"Dung",
        "img": "https://thoitrangcongsodep.net/wp-content/uploads/2019/09/ao-thun-the-thao-nu-dunlop-dabas8030-2-wt-4.jpg",
        "title": "Sol 5",
        "desc": "",
        "price": 180000
    },
    {
        "id": 6,
        "nameStory":"Dung",
        "img": "https://thoitrangcongsodep.net/wp-content/uploads/2019/09/ao-thun-the-thao-nu-dunlop-dabas8030-2-wt-4.jpg",
        "title": "Alex 6",
        "desc": "",
        "price": 220000
    }
]